{
    "reasonCodes": [
        "Address incorrect",
        "Check damaged",
        "Check not due payee",
        "Check returned",
        "Ck not rec'd - reissue",
        "Payee deceased",
        "Stale date - no response",
        "Stale date - reissue",
        "Test Add Record",
        "Unable to locate payee",
        "Other"
    ]
}